# Blender v2.75 (sub 0) OBJ File: ''
# www.blender.org
mtllib Tree.mtl
o Icosphere_Icosphere.001
v -0.051240 0.919366 0.487074
v 0.174594 0.905535 0.605687
v -0.070915 1.035479 0.768124
v 0.409715 1.045045 0.700609
v 0.386265 1.012058 0.450606
v -0.261620 1.114223 0.550411
v -0.119480 1.037282 0.269127
v 0.115078 0.941467 0.339632
v 0.588924 1.199431 0.580225
v -0.022252 1.241618 0.945163
v 0.216331 1.106668 0.864874
v 0.219993 1.382491 0.962992
v -0.358843 1.395781 0.568698
v -0.308164 1.288300 0.859343
v -0.382981 1.654772 0.785100
v -0.155492 1.250422 0.034567
v -0.284382 1.324162 0.284993
v -0.173377 1.542103 0.105364
v 0.356675 1.110819 0.213823
v 0.091595 1.163114 0.104613
v 0.411613 1.294817 0.039583
v 0.458754 1.268153 0.839781
v -0.122943 1.537772 0.996415
v -0.422507 1.670505 0.363668
v 0.093805 1.416964 -0.003247
v 0.657705 1.190391 0.211091
v 0.417640 1.521111 0.871367
v 0.588155 1.477328 0.682302
v 0.429210 1.720987 0.708303
v -0.080552 1.761141 0.820120
v 0.201734 1.662360 0.881733
v 0.168194 1.840599 0.652506
v -0.131152 1.789778 0.229588
v -0.198392 1.911479 0.552105
v 0.132946 1.847964 0.362745
v 0.352033 1.557975 -0.004052
v 0.098461 1.729204 0.058678
v 0.386425 1.755705 0.221575
v 0.661738 1.400253 0.414263
v 0.627540 1.491278 0.154954
v 0.557627 1.654281 0.450996
v 0.361144 1.823480 0.481290
v -0.307123 0.465644 -0.555365
v 0.002440 0.591565 -0.323808
v -0.467201 0.607873 -0.120218
v 0.227295 0.946078 -0.134310
v 0.264055 0.893649 -0.532259
v -0.750782 0.603460 -0.504207
v -0.441596 0.599694 -0.917690
v -0.055419 0.615197 -0.756975
v 0.403737 1.294033 -0.296255
v -0.569618 0.930287 0.160108
v -0.122398 0.898547 0.085115
v -0.320599 1.294884 0.229181
v -1.081796 0.944072 -0.505953
v -0.993468 0.810178 -0.032658
v -1.331356 1.292374 -0.179762
v -0.590436 0.893479 -1.304019
v -0.872561 0.902829 -0.936569
v -0.824810 1.299484 -1.207929
v 0.201348 1.026718 -0.916052
v -0.191930 0.929663 -1.141964
v 0.190523 1.336644 -1.188316
v 0.121374 1.294884 0.085576
v -0.921721 1.288215 0.209135
v -1.317105 1.306976 -0.853583
v -0.337753 1.302268 -1.322530
v 0.579471 1.343038 -0.865506
v -0.112775 1.631161 0.116880
v 0.197041 1.690227 -0.146881
v -0.198444 1.934515 -0.146786
v -0.976442 1.646670 -0.070454
v -0.518257 1.690201 0.085572
v -0.641244 1.935027 -0.290391
v -0.954031 1.679846 -1.013998
v -1.193923 1.796526 -0.522797
v -0.640687 1.934685 -0.755101
v -0.062356 1.678565 -1.279798
v -0.551908 1.753412 -1.236955
v -0.188952 1.977181 -0.925150
v 0.405646 1.639839 -0.552698
v 0.345865 1.759638 -0.972629
v 0.079629 1.935302 -0.525490
v -0.320599 2.046812 -0.522747
v 0.000801 -0.940034 -0.268025
v 0.000801 -1.214598 -0.372967
v 0.354713 -1.214598 -0.115253
v 0.254907 -0.940034 -0.082824
v 0.219224 -1.214598 0.301736
v 0.157541 -0.940034 0.216837
v -0.219224 -1.214598 0.301736
v -0.157541 -0.940034 0.216837
v -0.193576 -0.940034 -0.082824
v -0.353911 -1.214598 -0.115253
v -0.087658 1.050032 -0.012988
v -0.076289 0.933526 -0.024788
v 0.000000 0.933526 -0.080215
v -0.029359 1.053281 -0.067133
v 0.039586 1.063043 -0.028502
v 0.076289 0.933526 -0.024788
v 0.047149 0.933526 0.064895
v 0.023897 1.065827 0.049517
v -0.107776 0.734527 0.081033
v -0.070995 0.528820 0.097716
v -0.114872 0.528820 -0.037324
v -0.144163 0.734527 -0.030952
v 0.009972 0.734527 0.081033
v 0.070995 0.528820 0.097716
v 0.046358 0.734527 -0.030952
v 0.114872 0.528820 -0.037324
v -0.048902 0.734527 -0.100163
v 0.000000 0.528820 -0.120783
v -0.088148 -0.168682 0.121325
v -0.082096 -0.168682 -0.046342
v 0.060530 -0.168682 -0.149966
v 0.148678 -0.168682 0.121325
v 0.203157 -0.168682 -0.046342
v -0.047149 0.933526 0.064895
v -0.087658 1.050032 -0.012988
v -0.029359 1.053281 -0.067133
v 0.039586 1.063043 -0.028502
v 0.023897 1.065827 0.049517
v -0.054744 1.057786 0.059106
v -0.054744 1.057786 0.059106
v -0.247961 0.808524 -0.215776
v -0.182569 0.808524 -0.263286
v -0.227854 0.667316 -0.220151
v -0.149001 0.667316 -0.277441
v 0.044920 1.043956 0.252315
v 0.026690 1.141847 0.236938
v -0.034969 1.135897 0.246526
v -0.029014 1.043956 0.252315
vt 0.089971 0.860906
vt 0.039575 0.850647
vt 0.082809 0.802027
vt 0.828213 0.218601
vt 0.871375 0.197458
vt 0.871227 0.246672
vt 0.138103 0.829043
vt 0.125632 0.891938
vt 0.071057 0.895173
vt 0.817593 0.266913
vt 0.880151 0.095156
vt 0.883902 0.146026
vt 0.839804 0.133066
vt 0.649240 0.718277
vt 0.594494 0.689191
vt 0.661892 0.652405
vt 0.699264 0.821984
vt 0.676213 0.771863
vt 0.736419 0.774099
vt 0.085530 0.600010
vt 0.129609 0.635438
vt 0.057381 0.632999
vt 0.774536 0.231388
vt 0.835708 0.060348
vt 0.719320 0.713052
vt 0.167423 0.674242
vt 0.144832 0.724782
vt 0.105452 0.683168
vt 0.022006 0.588117
vt 0.794958 0.160281
vt 0.778553 0.190694
vt 0.745752 0.147372
vt 0.779238 0.051599
vt 0.783602 0.111767
vt 0.736587 0.090141
vt 0.429654 0.735752
vt 0.367817 0.771455
vt 0.385188 0.696938
vt 0.449869 0.623117
vt 0.449869 0.681176
vt 0.398765 0.638155
vt 0.811779 0.319881
vt 0.839519 0.364161
vt 0.775502 0.339814
vt 0.345067 0.614569
vt 0.347815 0.660203
vt 0.402492 0.577958
vt 0.326193 0.706054
vt 0.311104 0.757635
vt 0.301241 0.655488
vt 0.301789 0.613649
vt 0.763969 0.288198
vt 0.871375 0.320571
vt 0.000000 0.645283
vt 0.044380 0.685689
vt 0.076722 0.735649
vt 0.115357 0.760751
vt 0.424812 0.791553
vt 0.736419 0.659542
vt 0.815888 0.000000
vt 0.740049 0.014846
vt 0.736587 0.256264
vt 0.181577 0.760751
vt 0.883902 0.036758
vt 0.836687 0.181834
vt 0.803030 0.190694
vt 0.284752 0.351529
vt 0.243531 0.327202
vt 0.284752 0.299139
vt 0.146924 0.587187
vt 0.181621 0.626420
vt 0.634757 0.814335
vt 0.607961 0.758843
vt 0.138103 0.760751
vt 0.076581 0.761156
vt 0.243531 0.372537
vt 0.276732 0.351529
vt 0.276732 0.408493
vt 0.018880 0.884249
vt 0.028695 0.794487
vt 0.000000 0.837439
vt 0.157243 0.037964
vt 0.218265 0.000000
vt 0.241782 0.090310
vt 0.746490 0.577716
vt 0.671362 0.631514
vt 0.670336 0.544481
vt 0.152491 0.129593
vt 0.080175 0.062971
vt 0.128114 0.000226
vt 0.756607 0.494644
vt 0.320356 0.417475
vt 0.330713 0.329466
vt 0.391507 0.375810
vt 0.144299 0.216722
vt 0.242191 0.202990
vt 0.206191 0.299139
vt 0.520035 0.621121
vt 0.590493 0.577958
vt 0.590493 0.673524
vt 0.575752 0.128855
vt 0.520647 0.189972
vt 0.525356 0.079090
vt 0.819166 0.553200
vt 0.377075 0.494051
vt 0.069670 0.279147
vt 0.458353 0.243876
vt 0.370032 0.215477
vt 0.443164 0.150008
vt 0.594494 0.033818
vt 0.469694 0.343153
vt 0.508241 0.285711
vt 0.545655 0.368770
vt 0.465587 0.514907
vt 0.473521 0.424435
vt 0.545655 0.457066
vt 0.127372 0.299139
vt 0.243531 0.299530
vt 0.159200 0.373112
vt 0.000000 0.431416
vt 0.054928 0.348188
vt 0.090402 0.436180
vt 0.088393 0.579918
vt 0.023515 0.529377
vt 0.136958 0.520149
vt 0.178514 0.448320
vt 0.243531 0.415062
vt 0.522811 0.564708
vt 0.230259 0.505687
vt 0.182995 0.579208
vt 0.001478 0.587187
vt 0.499344 0.000000
vt 0.437544 0.059172
vt 0.351726 0.112082
vt 0.304335 0.179110
vt 0.284167 0.630263
vt 0.181621 0.689442
vt 0.209268 0.587187
vt 0.284167 0.762862
vt 0.396835 0.577958
vt 0.412954 0.290094
vt 0.819166 0.463730
vt 0.745618 0.416191
vt 0.301241 0.284509
vt 0.422738 0.285711
vt 0.064068 0.164222
vt 0.301241 0.236917
vt 0.301241 0.499847
vt 0.773401 0.633219
vt 0.663004 0.418444
vt 0.613369 0.491580
vt 0.594494 0.226246
vt 0.531423 0.275502
vt 0.000000 0.103210
vt 0.299653 0.143193
vt 0.594494 0.590388
vt 0.610007 0.652405
vt 0.301241 0.059136
vt 0.456219 0.648771
vt 0.506596 0.628649
vt 0.520035 0.577958
vt 0.449869 0.605966
vt 0.899162 0.828872
vt 0.834670 0.828872
vt 0.819166 0.883601
vt 0.908909 0.883601
vt 0.922057 0.472519
vt 0.987518 0.472519
vt 1.000000 0.416191
vt 0.908909 0.416191
vt 0.663525 0.354372
vt 0.622664 0.336175
vt 0.594494 0.384239
vt 0.652522 0.416191
vt 0.724779 0.356222
vt 0.736587 0.412110
vt 0.489320 0.997194
vt 0.488624 0.976403
vt 0.504909 0.978208
vt 0.501976 1.000000
vt 0.880213 0.431487
vt 0.880599 0.457286
vt 0.861298 0.457286
vt 0.863695 0.430976
vt 0.520035 0.972179
vt 0.516031 0.997147
vt 0.736011 0.047031
vt 0.713438 0.048144
vt 0.706816 0.082978
vt 0.734037 0.081636
vt 0.951684 0.804258
vt 0.976147 0.804258
vt 0.968632 0.763506
vt 0.939133 0.763506
vt 0.881176 0.496550
vt 0.857075 0.496550
vt 0.855546 0.537552
vt 0.884609 0.537552
vt 0.489652 0.944573
vt 0.494356 0.907051
vt 0.517132 0.897973
vt 0.508540 0.937045
vt 0.687880 0.206528
vt 0.722517 0.209626
vt 0.469834 0.904334
vt 0.488204 0.779860
vt 0.457757 0.776487
vt 0.972890 0.626346
vt 0.923688 0.626346
vt 0.853464 0.675997
vt 0.889549 0.675997
vt 0.516483 0.768589
vt 0.664548 0.193680
vt 0.943838 0.843680
vt 0.963429 0.843680
vt 0.718510 0.006872
vt 0.697854 0.039563
vt 0.706029 0.000000
vt 0.736587 0.005981
vt 0.000000 0.000000
vt 0.299062 0.445910
vt 0.276732 0.445910
vt 0.277571 0.402627
vt 0.292899 0.402627
vt 0.674007 0.063940
vt 0.678553 0.040028
vt 0.275155 0.408493
vt 0.275155 0.449767
vt 0.243531 0.461261
vt 0.243531 0.432929
vt 0.271950 0.502965
vt 0.243531 0.505710
vt 0.252442 0.463145
vt 0.271950 0.461261
vt 0.822547 0.435668
vt 0.825115 0.416191
vt 0.298907 0.338203
vt 0.284752 0.339923
vt 0.287809 0.300904
vt 0.298907 0.299139
vt 0.296797 0.402627
vt 0.276732 0.391606
vt 0.281823 0.351529
vt 0.296797 0.359419
vt 0.295999 0.486322
vt 0.276732 0.486322
vt 0.277538 0.445910
vt 0.292644 0.445910
vn -0.242200 -0.902600 0.355900
vn 0.488300 -0.869900 0.069000
vn -0.610900 -0.745900 0.265400
vn -0.696300 -0.699600 -0.160500
vn -0.239700 -0.883300 -0.402800
vn 0.666000 -0.745100 0.035800
vn 0.125500 -0.334000 0.934200
vn -0.978400 -0.178600 0.104600
vn -0.880200 0.060300 -0.470800
vn 0.147900 -0.703000 -0.695700
vn 0.733900 -0.468200 0.492000
vn 0.022300 -0.163100 0.986400
vn -0.982800 -0.163500 0.086100
vn -0.282200 0.209900 -0.936100
vn 0.179900 -0.704200 -0.686900
vn 0.722100 0.411700 0.555900
vn 0.147300 0.791200 0.593600
vn -0.025400 0.933500 -0.357600
vn 0.305900 0.692400 -0.653400
vn 0.925800 0.377900 0.010600
vn 0.634200 0.761000 -0.136800
vn 0.694300 0.687100 -0.214300
vn 0.501400 0.611400 -0.612200
vn 0.219400 0.949000 -0.226300
vn 0.126600 0.919000 -0.373300
vn -0.023100 0.932100 -0.361400
vn 0.099900 0.994900 0.013100
vn 0.189300 0.981900 0.001900
vn 0.039700 0.878800 0.475500
vn 0.344100 0.890200 0.298700
vn 0.236200 0.783500 0.574700
vn 0.403700 0.564200 0.720200
vn 0.658400 0.740100 0.136700
vn 0.817900 0.503900 0.277600
vn 0.922200 0.356200 0.150800
vn 0.991500 0.080300 -0.102600
vn 0.539300 -0.101900 -0.835900
vn 0.493700 -0.032300 -0.869000
vn -0.109500 0.194900 -0.974700
vn -0.291900 0.190200 -0.937300
vn -0.448600 0.460600 -0.765900
vn -0.497900 0.772000 -0.395100
vn -0.765100 0.636800 0.095500
vn -0.330800 0.753500 0.568100
vn 0.042800 0.614000 0.788200
vn 0.220100 0.285200 0.932900
vn 0.231200 0.285200 0.930200
vn 0.746500 0.038400 0.664300
vn 0.861300 -0.173100 0.477800
vn 0.951000 -0.104300 0.291100
vn 0.076700 -0.146200 -0.986300
vn -0.026200 -0.390700 -0.920100
vn 0.121400 -0.389100 -0.913200
vn -0.519000 0.452300 -0.725300
vn -0.748000 -0.151500 -0.646100
vn -0.928900 -0.334200 -0.159400
vn -0.303200 0.625200 0.719200
vn -0.621700 0.031600 0.782600
vn -0.316700 -0.265300 0.910700
vn 0.443100 -0.039800 0.895600
vn 0.307500 -0.322500 0.895200
vn 0.436200 -0.543300 0.717300
vn 0.963000 -0.196900 0.184300
vn 0.624600 -0.769100 0.135200
vn 0.230900 -0.887400 -0.399000
vn 0.142200 -0.713000 -0.686600
vn -0.093900 -0.729000 -0.678100
vn -0.074400 -0.743700 -0.664400
vn -0.835700 -0.464200 -0.293500
vn -0.835300 -0.463800 -0.295200
vn -0.935300 -0.312100 -0.166700
vn -0.943500 -0.328600 0.043000
vn -0.638000 -0.708000 0.302800
vn -0.320000 -0.572600 0.754700
vn 0.379700 -0.836000 -0.396100
vn 0.321700 -0.926100 -0.197000
vn 0.010900 -0.990600 -0.136200
vn -0.100900 -0.634400 0.766400
vn -0.011300 -0.789100 0.614200
vn 0.235400 -0.785800 0.571900
vn 0.118400 -0.930200 0.347600
vn 0.796400 -0.585700 0.150700
vn -0.268100 -0.940500 0.208800
vn -0.312600 -0.922800 -0.225400
vn 0.204500 -0.890900 -0.405500
vn 0.907700 -0.396900 0.136100
vn 0.139900 -0.275700 0.951000
vn -0.817400 -0.576000 -0.010400
vn -0.759800 -0.302300 -0.575600
vn 0.512900 -0.556400 -0.653800
vn 0.797100 -0.129700 0.589700
vn -0.031000 -0.165500 0.985700
vn -0.825500 -0.563700 -0.029700
vn -0.228500 0.097400 -0.968700
vn 0.541000 -0.544300 -0.641100
vn 0.408900 0.661700 0.628500
vn -0.272100 0.763200 0.586000
vn -0.371800 0.845800 -0.382500
vn 0.063300 0.774400 -0.629500
vn 0.672400 0.731500 0.113000
vn 0.267100 0.960500 -0.078800
vn 0.361500 0.920800 -0.146500
vn 0.268100 0.782000 -0.562700
vn -0.174200 0.959100 -0.222900
vn -0.227200 0.897000 -0.379300
vn -0.368700 0.845600 -0.386000
vn -0.329900 0.944000 -0.001100
vn -0.242700 0.970100 -0.001000
vn -0.391300 0.800800 0.453400
vn -0.101000 0.943800 0.314700
vn -0.186600 0.794200 0.578200
vn 0.038500 0.661700 0.748800
vn 0.264400 0.944300 0.196100
vn 0.490000 0.793200 0.361500
vn 0.661300 0.706500 0.252200
vn 0.870300 0.492300 0.016500
vn 0.629200 0.157100 -0.761200
vn 0.563000 0.201900 -0.801400
vn -0.062200 0.157400 -0.985600
vn -0.228800 0.075500 -0.970500
vn -0.504100 0.250200 -0.826600
vn -0.724300 0.501800 -0.472900
vn -0.967200 0.253500 -0.015000
vn -0.683100 0.528900 0.503600
vn -0.315100 0.553300 0.771100
vn -0.035100 0.325700 0.944800
vn -0.024700 0.330400 0.943500
vn 0.574500 0.330300 0.748800
vn 0.789300 0.191900 0.583300
vn 0.863700 0.297100 0.407100
vn 0.250100 -0.073400 -0.965400
vn 0.252300 -0.340200 -0.905900
vn 0.383400 -0.276900 -0.881100
vn -0.568800 0.212000 -0.794700
vn -0.530600 -0.434200 -0.728000
vn -0.675500 -0.689200 -0.262200
vn -0.622600 0.420000 0.660300
vn -0.667300 -0.254000 0.700200
vn -0.283700 -0.398600 0.872200
vn 0.306600 0.125600 0.943500
vn 0.303500 -0.187800 0.934100
vn 0.533600 -0.329100 0.779100
vn 0.926300 0.221100 0.305000
vn 0.868600 -0.438800 0.230400
vn 0.629000 -0.696900 -0.344400
vn 0.510800 -0.568100 -0.645200
vn 0.304100 -0.682100 -0.665000
vn 0.326200 -0.687700 -0.648600
vn -0.520800 -0.764200 -0.380500
vn -0.520400 -0.763600 -0.382200
vn -0.689700 -0.671600 -0.270800
vn -0.715500 -0.695700 -0.063300
vn -0.312900 -0.918500 0.241600
vn -0.138600 -0.674500 0.725100
vn 0.740900 -0.587800 -0.324900
vn 0.702400 -0.699400 -0.132000
vn 0.442700 -0.890200 -0.107700
vn 0.082900 -0.638700 0.764900
vn 0.247000 -0.737200 0.628900
vn 0.472600 -0.629400 0.616800
vn 0.562500 0.295400 -0.772200
vn 0.908600 0.295400 0.295200
vn 0.000000 0.295400 0.955400
vn -0.587300 0.353600 -0.728100
vn -0.898300 0.383700 0.214000
vn 0.630700 0.027100 0.775500
vn -0.940400 -0.233400 -0.247500
vn -0.527500 -0.171100 0.832200
vn -0.941200 -0.143500 0.305800
vn 0.000000 0.080800 0.996700
vn 0.909100 0.293600 0.295400
vn -0.574000 -0.215600 0.790000
vn -0.992200 -0.009800 0.124000
vn -0.587700 -0.017200 -0.808900
vn 0.000000 0.033800 0.999400
vn 0.944700 0.115600 0.306900
vn 0.585700 0.084600 -0.806100
vn -0.990900 0.118600 0.063600
vn -0.643700 0.146700 -0.751100
vn 0.000000 0.122900 0.992400
vn 0.949900 0.049100 0.308600
vn 0.586800 0.077700 -0.806000
vn -0.586600 0.063200 0.807400
vn 0.940200 -0.150900 0.305500
vn 0.573400 -0.220000 0.789200
vn 0.907200 -0.300300 -0.294800
vn 0.000000 0.000000 1.000000
vn -0.194900 -0.943400 -0.268300
vn 0.886200 0.139900 -0.441700
vn -0.801400 -0.245200 0.545500
vn 0.319000 0.839900 0.439100
vn -0.982600 -0.165800 0.084000
vn 0.142000 -0.918500 0.369100
vn 0.990200 0.055200 -0.127900
vn 0.000000 0.861600 -0.507600
usemtl None
s 1
f 1/1/1 2/2/1 3/3/1
f 4/4/2 2/5/2 5/6/2
f 1/1/3 3/3/3 6/7/3
f 1/1/4 6/7/4 7/8/4
f 1/1/5 7/8/5 8/9/5
f 4/4/6 5/6/6 9/10/6
f 10/11/7 11/12/7 12/13/7
f 13/14/8 14/15/8 15/16/8
f 16/17/9 17/18/9 18/19/9
f 19/20/10 20/21/10 21/22/10
f 4/4/11 9/10/11 22/23/11
f 10/11/12 12/13/12 23/24/12
f 13/14/13 15/16/13 24/25/13
f 16/26/14 18/27/14 25/28/14
f 19/20/15 21/22/15 26/29/15
f 27/30/16 28/31/16 29/32/16
f 30/33/17 31/34/17 32/35/17
f 33/36/18 34/37/18 35/38/18
f 36/39/19 37/40/19 38/41/19
f 39/42/20 40/43/20 41/44/20
f 41/45/21 38/41/21 42/46/21
f 41/45/22 40/47/22 38/41/22
f 40/47/23 36/39/23 38/41/23
f 38/41/24 35/38/24 42/46/24
f 38/41/25 37/40/25 35/38/25
f 37/40/26 33/36/26 35/38/26
f 35/38/27 32/48/27 42/46/27
f 35/38/28 34/37/28 32/48/28
f 34/37/29 30/49/29 32/48/29
f 32/48/30 29/50/30 42/46/30
f 32/35/31 31/34/31 29/32/31
f 31/34/32 27/30/32 29/32/32
f 29/50/33 41/45/33 42/46/33
f 29/50/34 28/51/34 41/45/34
f 28/52/35 39/42/35 41/44/35
f 26/53/36 40/43/36 39/42/36
f 26/29/37 21/22/37 40/54/37
f 21/22/38 36/55/38 40/54/38
f 25/28/39 37/56/39 36/55/39
f 25/28/40 18/27/40 37/56/40
f 18/27/41 33/57/41 37/56/41
f 24/58/42 34/37/42 33/36/42
f 24/25/43 15/16/43 34/59/43
f 15/60/44 30/33/44 34/61/44
f 23/24/45 31/34/45 30/33/45
f 23/24/46 12/13/46 31/34/46
f 12/13/47 27/30/47 31/34/47
f 22/23/48 28/52/48 27/62/48
f 22/23/49 9/10/49 28/52/49
f 9/10/50 39/42/50 28/52/50
f 21/22/51 25/28/51 36/55/51
f 21/22/52 20/21/52 25/28/52
f 20/21/53 16/26/53 25/28/53
f 18/27/54 24/63/54 33/57/54
f 18/19/55 17/18/55 24/25/55
f 17/18/56 13/14/56 24/25/56
f 15/60/57 23/24/57 30/33/57
f 15/60/58 14/64/58 23/24/58
f 14/64/59 10/11/59 23/24/59
f 12/13/60 22/65/60 27/30/60
f 12/13/61 11/12/61 22/65/61
f 11/66/62 4/4/62 22/23/62
f 9/10/63 26/53/63 39/42/63
f 9/10/64 5/6/64 26/53/64
f 5/67/65 19/68/65 26/69/65
f 8/70/66 20/21/66 19/20/66
f 8/70/67 7/71/67 20/21/67
f 7/71/68 16/26/68 20/21/68
f 7/72/69 17/18/69 16/17/69
f 7/72/70 6/73/70 17/18/70
f 6/73/71 13/14/71 17/18/71
f 6/73/72 14/15/72 13/14/72
f 6/7/73 3/3/73 14/74/73
f 3/3/74 10/75/74 14/74/74
f 5/76/75 8/77/75 19/78/75
f 5/79/76 2/2/76 8/9/76
f 2/2/77 1/1/77 8/9/77
f 3/3/78 11/80/78 10/75/78
f 3/3/79 2/2/79 11/80/79
f 2/2/80 4/81/80 11/80/80
f 43/82/81 44/83/81 45/84/81
f 46/85/82 44/86/82 47/87/82
f 43/82/83 45/84/83 48/88/83
f 43/82/84 48/88/84 49/89/84
f 43/82/85 49/89/85 50/90/85
f 46/85/86 47/87/86 51/91/86
f 52/92/87 53/93/87 54/94/87
f 55/95/88 56/96/88 57/97/88
f 58/98/89 59/99/89 60/100/89
f 61/101/90 62/102/90 63/103/90
f 46/85/91 51/91/91 64/104/91
f 52/92/92 54/94/92 65/105/92
f 55/95/93 57/97/93 66/106/93
f 58/107/94 60/108/94 67/109/94
f 61/101/95 63/103/95 68/110/95
f 69/111/96 70/112/96 71/113/96
f 72/114/97 73/115/97 74/116/97
f 75/117/98 76/118/98 77/119/98
f 78/120/99 79/121/99 80/122/99
f 81/123/100 82/124/100 83/125/100
f 83/125/101 80/122/101 84/126/101
f 83/125/102 82/124/102 80/122/102
f 82/124/103 78/120/103 80/122/103
f 80/122/104 77/119/104 84/126/104
f 80/122/105 79/121/105 77/119/105
f 79/121/106 75/117/106 77/119/106
f 77/119/107 74/127/107 84/126/107
f 77/119/108 76/118/108 74/127/108
f 76/128/109 72/114/109 74/116/109
f 74/127/110 71/129/110 84/126/110
f 74/116/111 73/115/111 71/113/111
f 73/115/112 69/111/112 71/113/112
f 71/129/113 83/125/113 84/126/113
f 71/129/114 70/130/114 83/125/114
f 70/130/115 81/123/115 83/125/115
f 68/131/116 82/124/116 81/123/116
f 68/110/117 63/103/117 82/132/117
f 63/103/118 78/133/118 82/132/118
f 67/109/119 79/134/119 78/133/119
f 67/109/120 60/108/120 79/134/120
f 60/108/121 75/135/121 79/134/121
f 66/136/122 76/137/122 75/138/122
f 66/136/123 57/139/123 76/137/123
f 57/140/124 72/114/124 76/128/124
f 65/105/125 73/115/125 72/114/125
f 65/105/126 54/94/126 73/115/126
f 54/94/127 69/111/127 73/115/127
f 64/141/128 70/112/128 69/111/128
f 64/104/129 51/91/129 70/142/129
f 51/91/130 81/143/130 70/142/130
f 63/103/131 67/109/131 78/133/131
f 63/103/132 62/102/132 67/109/132
f 62/102/133 58/107/133 67/109/133
f 60/108/134 66/144/134 75/135/134
f 60/108/135 59/145/135 66/144/135
f 59/146/136 55/95/136 66/106/136
f 57/140/137 65/105/137 72/114/137
f 57/97/138 56/96/138 65/147/138
f 56/148/139 52/92/139 65/105/139
f 54/94/140 64/141/140 69/111/140
f 54/94/141 53/93/141 64/141/141
f 53/149/142 46/85/142 64/104/142
f 51/91/143 68/150/143 81/143/143
f 51/91/144 47/87/144 68/150/144
f 47/87/145 61/151/145 68/150/145
f 50/152/146 62/102/146 61/101/146
f 50/152/147 49/153/147 62/102/147
f 49/153/148 58/107/148 62/102/148
f 49/89/149 59/146/149 58/154/149
f 49/89/150 48/88/150 59/146/150
f 48/88/151 55/95/151 59/146/151
f 48/88/152 56/96/152 55/95/152
f 48/88/153 45/84/153 56/96/153
f 45/84/154 52/155/154 56/96/154
f 47/87/155 50/156/155 61/151/155
f 47/87/156 44/86/156 50/156/156
f 44/86/157 43/157/157 50/156/157
f 45/84/158 53/158/158 52/155/158
f 45/84/159 44/83/159 53/158/159
f 44/86/160 46/85/160 53/149/160
f 85/159/161 88/160/161 87/161/161 86/162/161
f 88/163/162 90/164/162 89/165/162 87/166/162
f 90/167/163 92/168/163 91/169/163 89/170/163
f 93/171/164 85/172/164 86/173/164 94/174/164
f 92/175/165 93/171/165 94/174/165 91/176/165
f 95/177/166 96/178/166 97/179/166 98/180/166
f 99/181/167 100/182/167 101/183/167 102/184/167
f 98/180/168 97/179/168 100/185/168 99/186/168
f 103/187/169 106/188/169 105/189/169 104/190/169
f 107/191/170 103/192/170 104/193/170 108/194/170
f 109/195/171 107/196/171 108/197/171 110/198/171
f 111/199/172 112/200/172 110/201/172 109/202/172
f 104/190/173 105/189/173 114/203/173 113/204/173
f 105/205/174 112/200/174 115/206/174 114/207/174
f 108/194/175 104/193/175 113/208/175 116/209/175
f 110/198/176 108/197/176 116/210/176 117/211/176
f 112/200/177 110/201/177 117/212/177 115/206/177
f 113/204/178 114/203/178 93/171/178 92/175/178
f 114/203/179 115/213/179 85/172/179 93/171/179
f 116/209/180 113/208/180 92/168/180 90/167/180
f 117/211/181 116/210/181 90/164/181 88/163/181
f 115/206/182 117/212/182 88/160/182 85/159/182
f 97/179/183 111/199/183 109/202/183 100/185/183
f 100/182/184 101/183/184 107/196/184 109/195/184
f 101/214/170 118/215/170 103/192/170 107/191/170
f 96/216/185 106/188/185 111/217/185 97/218/185
f 118/219/186 103/187/186 106/188/186 96/216/186
f 98/220/187 95/220/187 119/220/187 120/220/187
f 102/220/187 99/220/187 121/220/187 122/220/187
f 123/220/187 102/220/187 122/220/187 124/220/187
f 99/220/187 98/220/187 120/220/187 121/220/187
f 111/221/188 106/222/188 125/223/188 126/224/188
f 106/188/189 105/189/189 127/225/189 125/226/189
f 112/227/190 111/228/190 126/229/190 128/230/190
f 105/231/191 112/232/191 128/233/191 127/234/191
f 102/184/192 101/183/192 129/235/192 130/236/192
f 123/237/193 102/238/193 130/239/193 131/240/193
f 118/241/194 123/242/194 131/243/194 132/244/194
f 101/245/195 118/246/195 132/247/195 129/248/195
l 124 119
