# Blender v2.75 (sub 0) OBJ File: ''
# www.blender.org
mtllib Arena.mtl
o Torus.002
v 2.059999 0.000000 0.000000
v 1.809999 0.250000 0.000000
v 1.559999 0.000000 0.000000
v 1.809999 -0.250000 0.000000
v 1.456639 0.000000 -1.456640
v 1.279863 0.250000 -1.279863
v 1.103086 0.000000 -1.103086
v 1.279863 -0.250000 -1.279863
v 0.000000 0.000000 -2.059999
v 0.000000 0.250000 -1.809999
v 0.000000 0.000000 -1.559999
v 0.000000 -0.250000 -1.809999
v -1.456640 0.000000 -1.456639
v -1.279863 0.250000 -1.279862
v -1.103086 0.000000 -1.103086
v -1.279863 -0.250000 -1.279862
v -2.059999 0.000000 -0.000000
v -1.809999 0.250000 -0.000000
v -1.559999 0.000000 -0.000000
v -1.809999 -0.250000 -0.000000
v -1.456640 0.000000 1.456639
v -1.279863 0.250000 1.279862
v -1.103086 0.000000 1.103086
v -1.279863 -0.250000 1.279862
v 0.000000 0.000000 2.059999
v 0.000000 0.250000 1.809999
v 0.000000 0.000000 1.559999
v 0.000000 -0.250000 1.809999
v 1.456639 0.000000 1.456640
v 1.279862 0.250000 1.279863
v 1.103086 0.000000 1.103087
v 1.279862 -0.250000 1.279863
vn -0.678600 0.678600 0.281100
vn -0.281100 0.678600 0.678600
vn 0.281100 0.678600 0.678600
vn 0.678600 0.678600 0.281100
vn 0.678600 0.678600 -0.281100
vn 0.281100 0.678600 -0.678600
vn -0.281100 0.678600 -0.678600
vn -0.678600 0.678600 -0.281100
usemtl None
s off
f 2//1 6//1 7//1 3//1
f 6//2 10//2 11//2 7//2
f 10//3 14//3 15//3 11//3
f 14//4 18//4 19//4 15//4
f 18//5 22//5 23//5 19//5
f 22//6 26//6 27//6 23//6
f 26//7 30//7 31//7 27//7
f 30//8 2//8 3//8 31//8
l 23 24
l 17 20
l 3 4
l 25 28
l 9 13
l 13 14
l 20 24
l 5 6
l 31 32
l 21 25
l 9 12
l 28 32
l 17 18
l 1 5
l 21 24
l 15 16
l 25 26
l 16 20
l 1 29
l 24 28
l 12 16
l 7 8
l 1 4
l 19 20
l 9 10
l 27 28
l 29 32
l 13 17
l 4 8
l 21 22
l 5 9
l 11 12
l 4 32
l 13 16
l 1 2
l 17 21
l 5 8
l 25 29
l 8 12
l 29 30
